…
  circle_grid %>%
    mutate(distance = distance(x0, x, y0, y)) %>%
    filter(distance <= r)
}

circles_points <- circles %>%
  mutate(points = pmap(list(x0, y0, r), generate_points_in_circle)) %>%
  unnest(points)

circles_points
```

    ## # A tibble: 23,535 × 8
    ##       x0    y0     r colour    id     x       y distance
    ##    <dbl> <dbl> <dbl> <chr>  <int> <dbl>   <dbl>    <dbl>
    ##  1     0     0     1 red        1 -1     0         1    
    ##  2     0     0     1 red        1 -0.98 -0.18      0.996
    ##  3     0     0     1 red        1 -0.98 -0.16      0.993
    ##  4     0     0     1 red        1 -0.98 -0.14      0.990
    ##  5     0     0     1 red        1 -0.98 -0.12      0.987
    ##  6     0     0     1 red        1 -0.98 -0.1       0.985
    ##  7     0     0     1 red        1 -0.98 -0.0800    0.983
    ##  8     0     0     1 red        1 -0.98 -0.0600    0.982
    ##  9     0     0     1 red        1 -0.98 -0.0400    0.981
    ## 10     0     0     1 red        1 -0.98 -0.0200    0.980
    ## # … with 23,525 more rows
…
